Project 1: Exploratory Data Analysis
…
Tidying Data

Since both of my datasets were tidy, in order to display the use of pivot_wider and pivot_longer functions I untidyed my data with pivot_wider and made them tidy again with pivot_longer.

spotify_songs %>% pivot_wider(names_from = "track_album_release_date", 
    values_from = "track_popularity")

## # A tibble: 32,833 x 4,551
##    track_id track_name track_artist track_album_id track_album_name
##    <chr>    <chr>      <chr>        <chr>          <chr>           
##  1 6f807x0… I Don't C… Ed Sheeran   2oCs0DGTsRO98… I Don't Care (w…
##  2 0r7CVbZ… Memories … Maroon 5     63rPSO264uRjW… Memories (Dillo…
##  3 1z1Hg7V… All the T… Zara Larsson 1HoSmj2eLcsrR… All the Time (D…
##  4 75Fpbth… Call You … The Chainsm… 1nqYsOef1yKKu… Call You Mine -…
##  5 1e8PAfc… Someone Y… Lewis Capal… 7m7vv9wlQ4i0L… Someone You Lov…
##  6 7fvUMiy… Beautiful… Ed Sheeran   2yiy9cd2QktrN… Beautiful Peopl…
##  7 2OAylPU… Never Rea… Katy Perry   7INHYSeusaFly… Never Really Ov…
##  8 6b1RNvA… Post Malo… Sam Feldt    6703SRPsLkS4b… Post Malone (fe…
##  9 7bF6tCO… Tough Lov… Avicii       7CvAfGvq4RlIw… Tough Love (Tië…
## 10 1IXGILk… If I Can'… Shawn Mendes 4QxzbfSsVryEQ… If I Can't Have…
## # … with 32,823 more rows, and 4,546 more variables: playlist_name <chr>,
## #   playlist_id <chr>, playlist_genre <chr>, playlist_subgenre <chr>,
## #   danceability <dbl>, energy <dbl>, key <dbl>, loudness <dbl>, mode <dbl>,
## #   speechiness <dbl>, acousticness <dbl>, instrumentalness <dbl>,
## #   liveness <dbl>, valence <dbl>, tempo <dbl>, duration_ms <dbl>,
## #   `2019-06-14` <dbl>, `2019-12-13` <dbl>, `2019-07-05` <dbl>,
## #   `2019-07-19` <dbl>, `2019-03-05` <dbl>, `2019-07-11` <dbl>,
## #   `2019-07-26` <dbl>, `2019-08-29` <dbl>, `2019-06-20` <dbl>,
## #   `2019-06-21` <dbl>, `2019-08-16` <dbl>, `2019-03-29` <dbl>,
…
spotify_songs %>% pivot_wider(names_from = "track_album_release_date", 
    values_from = "track_popularity") %>% pivot_longer(cols = -c(1:21), 
    names_to = "track_album_release_date", values_to = "track_popularity", 
    values_drop_na = T)

## # A tibble: 32,833 x 23
##    track_id track_name track_artist track_album_id track_album_name
##    <chr>    <chr>      <chr>        <chr>          <chr>           
##  1 6f807x0… I Don't C… Ed Sheeran   2oCs0DGTsRO98… I Don't Care (w…
##  2 0r7CVbZ… Memories … Maroon 5     63rPSO264uRjW… Memories (Dillo…
##  3 1z1Hg7V… All the T… Zara Larsson 1HoSmj2eLcsrR… All the Time (D…
##  4 75Fpbth… Call You … The Chainsm… 1nqYsOef1yKKu… Call You Mine -…
##  5 1e8PAfc… Someone Y… Lewis Capal… 7m7vv9wlQ4i0L… Someone You Lov…
##  6 7fvUMiy… Beautiful… Ed Sheeran   2yiy9cd2QktrN… Beautiful Peopl…
##  7 2OAylPU… Never Rea… Katy Perry   7INHYSeusaFly… Never Really Ov…
##  8 6b1RNvA… Post Malo… Sam Feldt    6703SRPsLkS4b… Post Malone (fe…
##  9 7bF6tCO… Tough Lov… Avicii       7CvAfGvq4RlIw… Tough Love (Tië…
## 10 1IXGILk… If I Can'… Shawn Mendes 4QxzbfSsVryEQ… If I Can't Have…
## # … with 32,823 more rows, and 18 more variables: playlist_name <chr>,
## #   playlist_id <chr>, playlist_genre <chr>, playlist_subgenre <chr>,
## #   danceability <dbl>, energy <dbl>, key <dbl>, loudness <dbl>, mode <dbl>,
## #   speechiness <dbl>, acousticness <dbl>, instrumentalness <dbl>,
## #   liveness <dbl>, valence <dbl>, tempo <dbl>, duration_ms <dbl>,
## #   track_album_release_date <chr>, track_popularity <dbl>

polls %>% pivot_wider(names_from = "year", values_from = "rank")

## # A tibble: 535 x 47
##    title artist gender critic_name critic_rols critic_country critic_country2
##    <chr> <chr>  <chr>  <chr>       <chr>       <chr>          <chr>          
##  1 Term… Publi… male   Joseph Aba… Fat Beats   US             <NA>           
##  2 4th … Gza f… male   Joseph Aba… Fat Beats   US             <NA>           
##  3 Pete… Run D… male   Joseph Aba… Fat Beats   US             <NA>           
##  4 Play… GLOBE… male   Joseph Aba… Fat Beats   US             <NA>           
##  5 Time… O.C.   male   Joseph Aba… Fat Beats   US             <NA>           
##  6 Play… Slum … male   Biba Adams  Critic      US             <NA>           
##  7 Self… Stop … mixed  Biba Adams  Critic      US             <NA>           
##  8 Push… Salt-… female Biba Adams  Critic      US             <NA>           
##  9 Ambi… 2Pac   male   Biba Adams  Critic      US             <NA>           
## 10 Big … JAY-Z… male   Biba Adams  Critic      US             <NA>           
## # … with 525 more rows, and 40 more variables: `1998` <dbl>, `1995` <dbl>,
## #   `1986` <dbl>, `2001` <dbl>, `1994` <dbl>, `1997` <dbl>, `1989` <dbl>,
## #   `1996` <dbl>, `1999` <dbl>, `1979` <dbl>, `1984` <dbl>, `1988` <dbl>,
## #   `1982` <dbl>, `1992` <dbl>, `2003` <dbl>, `2012` <dbl>, `2002` <dbl>,
## #   `2004` <dbl>, `1993` <dbl>, `2010` <dbl>, `2013` <dbl>, `2011` <dbl>,
## #   `2006` <dbl>, `2000` <dbl>, `2007` <dbl>, `2015` <dbl>, `2014` <dbl>,
## #   `1987` <dbl>, `1991` <dbl>, `1983` <dbl>, `2016` <dbl>, `2017` <dbl>,
## #   `2019` <dbl>, `2008` <dbl>, `1990` <dbl>, `2005` <dbl>, `1985` <dbl>,
## #   `2018` <dbl>, `1980` <dbl>, `2009` <dbl>

polls %>% pivot_wider(names_from = "year", values_from = "rank") %>% 
    pivot_longer(cols = -c(1:7), names_to = "year", values_to = "rank", 
        values_drop_na = T)

## # A tibble: 535 x 9
##    title artist gender critic_name critic_rols critic_country critic_country2
##    <chr> <chr>  <chr>  <chr>       <chr>       <chr>          <chr>          
##  1 Term… Publi… male   Joseph Aba… Fat Beats   US             <NA>           
##  2 4th … Gza f… male   Joseph Aba… Fat Beats   US             <NA>           
##  3 Pete… Run D… male   Joseph Aba… Fat Beats   US             <NA>           
##  4 Play… GLOBE… male   Joseph Aba… Fat Beats   US             <NA>           
##  5 Time… O.C.   male   Joseph Aba… Fat Beats   US             <NA>           
##  6 Play… Slum … male   Biba Adams  Critic      US             <NA>           
##  7 Self… Stop … mixed  Biba Adams  Critic      US             <NA>           
##  8 Push… Salt-… female Biba Adams  Critic      US             <NA>           
##  9 Ambi… 2Pac   male   Biba Adams  Critic      US             <NA>           
## 10 Big … JAY-Z… male   Biba Adams  Critic      US             <NA>           
## # … with 525 more rows, and 2 more variables: year <chr>, rank <dbl>

Joining/Merging

After viewing the two datasets independently and verifying that they were tidy, I joined them together to form a single dataset. The two datasets were joined using inner_join based on their common ID variable of track name. I chose to use an inner join to combine these datasets as I wanted to drop all rows from each dataset that did not have a match according to their ID variable.

In the original dataset for spotify_songs, there was 32,833 observations and in the original dataset for polls, there was 535 observations. There are 32,578 observations in the spotify_songs dataset that are not in the polls dataset and there are 296 observations in the polls dataset that are not in the spotify_songs dataset. Therefore, when an inner join is performed, a total of 32,874 observations will be lost since these observations do not have a match according to their ID variable.

rap <- inner_join(spotify_songs, polls, by = c(track_name = "title", 
    track_artist = "artist"))

anti_join(spotify_songs, polls, by = c(track_name = "title"))

## # A tibble: 32,578 x 23
##    track_id track_name track_artist track_popularity track_album_id
##    <chr>    <chr>      <chr>                   <dbl> <chr>         
##  1 6f807x0… I Don't C… Ed Sheeran                 66 2oCs0DGTsRO98…
##  2 0r7CVbZ… Memories … Maroon 5                   67 63rPSO264uRjW…
##  3 1z1Hg7V… All the T… Zara Larsson               70 1HoSmj2eLcsrR…
##  4 75Fpbth… Call You … The Chainsm…               60 1nqYsOef1yKKu…
##  5 1e8PAfc… Someone Y… Lewis Capal…               69 7m7vv9wlQ4i0L…
##  6 7fvUMiy… Beautiful… Ed Sheeran                 67 2yiy9cd2QktrN…
##  7 2OAylPU… Never Rea… Katy Perry                 62 7INHYSeusaFly…
##  8 6b1RNvA… Post Malo… Sam Feldt                  69 6703SRPsLkS4b…
##  9 7bF6tCO… Tough Lov… Avicii                     68 7CvAfGvq4RlIw…
## 10 1IXGILk… If I Can'… Shawn Mendes               67 4QxzbfSsVryEQ…
## # … with 32,568 more rows, and 18 more variables: track_album_name <chr>,
## #   track_album_release_date <chr>, playlist_name <chr>, playlist_id <chr>,
## #   playlist_genre <chr>, playlist_subgenre <chr>, danceability <dbl>,
## #   energy <dbl>, key <dbl>, loudness <dbl>, mode <dbl>, speechiness <dbl>,
## #   acousticness <dbl>, instrumentalness <dbl>, liveness <dbl>, valence <dbl>,
## #   tempo <dbl>, duration_ms <dbl>

anti_join(polls, spotify_songs, by = c(title = "track_name"))

## # A tibble: 296 x 9
##     rank title artist gender  year critic_name critic_rols critic_country
##    <dbl> <chr> <chr>  <chr>  <dbl> <chr>       <chr>       <chr>         
##  1     1 Term… Publi… male    1998 Joseph Aba… Fat Beats   US            
##  2     3 Pete… Run D… male    1986 Joseph Aba… Fat Beats   US            
##  3     4 Play… GLOBE… male    2001 Joseph Aba… Fat Beats   US            
##  4     5 Time… O.C.   male    1994 Joseph Aba… Fat Beats   US            
##  5     2 Self… Stop … mixed   1989 Biba Adams  Critic      US            
##  6     5 Big … JAY-Z… male    1999 Biba Adams  Critic      US            
##  7     1 Rapp… Sugar… male    1979 Dart Adams  Critic      US            
##  8     2 Suck… Run D… male    1984 Dart Adams  Critic      US            
##  9     3 Lyri… Eric … male    1988 Dart Adams  Critic      US            
## 10     2 Nuth… Dr Dr… male    1992 Insanul Ah… Genius      US            
## # … with 286 more rows, and 1 more variable: critic_country2 <chr>
…
## # A tibble: 3 x 7
##   track_popularity popularity_cat speechiness tempo valence instrumentalness
##              <dbl> <chr>                <dbl> <dbl>   <dbl>            <dbl>
## 1                0 low                 0.0618  74.5   0.203                0
## 2               34 med                 0.0562  77.2   0.211                0
## 3               67 high                0.0313  77.9   0.281                0
## # … with 1 more variable: loudness <dbl>

rap_3 %>% group_by(popularity_cat) %>% summarize_at(c("speechiness", 
    "tempo", "valence", "instrumentalness", "loudness", "track_popularity"), 
    max, na.rm = T) %>% arrange(track_popularity) %>% select(track_popularity, 
    everything())

## # A tibble: 3 x 7
##   track_popularity popularity_cat speechiness tempo valence instrumentalness
##              <dbl> <chr>                <dbl> <dbl>   <dbl>            <dbl>
## 1               22 low                  0.427  178.   0.867            0.426
## 2               66 med                  0.434  180.   0.968            0.35 
## 3               81 high                 0.431  181.   0.805            0.108
## # … with 1 more variable: loudness <dbl>

Lastly, I created a correlation matrix with all numeric variables contained in the dataset.

rap_3 %>% na.omit %>% select_if(is.numeric) %>% cor

##                  track_popularity danceability       energy          key
## track_popularity      1.000000000  -0.19674872  0.036702792  0.003991072
## danceability         -0.196748722   1.00000000 -0.089789296 -0.028660815
## energy                0.036702792  -0.08978930  1.000000000  0.006961492
## key                   0.003991072  -0.02866082  0.006961492  1.000000000
## loudness             -0.061089137  -0.05429678  0.626985126 -0.080853804
## mode                 -0.196874588   0.05012017 -0.066414645 -0.311581287
## speechiness           0.031089105  -0.04696134 -0.027551718 -0.122051291
##                      loudness        mode speechiness acousticness
## track_popularity -0.061089137 -0.19687459  0.03108911  0.033799937
## danceability     -0.054296784  0.05012017 -0.04696134 -0.119925120
## energy            0.626985126 -0.06641465 -0.02755172 -0.103950831
## key              -0.080853804 -0.31158129 -0.12205129  0.159763043
## loudness          1.000000000  0.01553754 -0.01439783  0.002843521
## mode              0.015537544  1.00000000 -0.03163295 -0.123886428
## speechiness      -0.014397827 -0.03163295  1.00000000 -0.053919760
##                  instrumentalness     liveness      valence        tempo
## track_popularity      -0.11092660  0.039812644 -0.203789894  0.296128844
## danceability           0.18028086 -0.079569192  0.196975910 -0.357519106
## energy                -0.14967900 -0.066370601  0.386363215  0.006688359
## key                    0.28121036  0.008588917  0.224068134  0.065876805
## loudness              -0.26326261 -0.101108053  0.181637354 -0.023236958
## mode                   0.05164158  0.162318894 -0.226604106 -0.017206652
## speechiness            0.14439399  0.037881988 -0.030097471  0.013254575
##                   duration_ms
## track_popularity -0.195087278
## danceability      0.104209194
## energy           -0.018475112
## key               0.138605449
## loudness         -0.115923467
## mode              0.092293552
## speechiness      -0.227289387
##  [ reached getOption("max.print") -- omitted 6 rows ]
…
Visualizing

I created a correlation heatmap of my numeric variables.

rap_cormat <- rap_3 %>% na.omit %>% select_if(is.numeric) %>% 
    cor

rap_cormat %>% as.data.frame() %>% rownames_to_column("var1") %>% 
    pivot_longer(-1, names_to = "var2", values_to = "correlation")

## # A tibble: 169 x 3
##    var1             var2             correlation
##    <chr>            <chr>                  <dbl>
##  1 track_popularity track_popularity     1      
##  2 track_popularity danceability        -0.197  
##  3 track_popularity energy               0.0367 
##  4 track_popularity key                  0.00399
##  5 track_popularity loudness            -0.0611 
##  6 track_popularity mode                -0.197  
##  7 track_popularity speechiness          0.0311 
##  8 track_popularity acousticness         0.0338 
##  9 track_popularity instrumentalness    -0.111  
## 10 track_popularity liveness             0.0398 
## # … with 159 more rows
…
final_rap2 %>% rename(popularity = track_popularity) %>% group_by(cluster) %>% 
    summarize_if(is.numeric, .funs = list(mean = mean, median = median, 
        sd = sd), na.rm = T) %>% pivot_longer(contains("_")) %>% 
    separate(name, sep = "_", into = c("variable", "stat")) %>% 
    pivot_wider(names_from = "variable", values_from = "value") %>% 
    arrange(stat)

## # A tibble: 21 x 8
##    cluster stat   popularity tempo valence loudness speechiness instrumentalness
##    <fct>   <chr>       <dbl> <dbl>   <dbl>    <dbl>       <dbl>            <dbl>
##  1 1       mean         3.87  91.3   0.659    -6.14       0.268       0.0000813 
##  2 2       mean        48.6  148.    0.623    -5.72       0.114       0.000312  
##  3 3       mean        66.9  138.    0.302    -7.27       0.297       0.00601   
##  4 4       mean        56.4  164.    0.703    -8.45       0.291       0.0123    
##  5 5       mean        56     89.4   0.738    -5.26       0.227       0.00249   
##  6 6       mean        56.1   92.9   0.595   -11.0        0.257       0.0000693 
##  7 7       mean        30     97.4   0.681    -9.61       0.299       0.322     
##  8 1       median       3     90.0   0.694    -5.84       0.282       0         
##  9 2       median      60.5  144.    0.56     -5.45       0.100       0.00000689
## 10 3       median      66.5  145.    0.281    -7.33       0.297       0.0000372 
## # … with 11 more rows
…
